<svg xmlns="http://www.w3.org/2000/svg" xmlns:xlink="http://www.w3.org/1999/xlink" width="1920" height="807" viewBox="0 0 1920 807">
  <defs>
    <clipPath id="clip-path">
      <rect id="Rectangle_1171" data-name="Rectangle 1171" width="1560.705" height="1141.801" fill="none"/>
    </clipPath>
    <clipPath id="clip-path-2">
      <path id="Path_330" data-name="Path 330" d="M386.62,1015.2V821.868l-.019-.011L210.939,918.523v.023L386.6,1015.213Z" transform="translate(-210.939 -821.857)" fill="none"/>
    </clipPath>
    <linearGradient id="linear-gradient" x1="-1.336" y1="1.176" x2="-1.33" y2="1.176" gradientUnits="objectBoundingBox">
      <stop offset="0" stop-color="#1a5d7d"/>
      <stop offset="0.389" stop-color="#1a5d7d"/>
      <stop offset="0.502" stop-color="#1a5a79"/>
      <stop offset="0.589" stop-color="#1b5470"/>
      <stop offset="0.668" stop-color="#1c495f"/>
      <stop offset="0.742" stop-color="#1f3948"/>
      <stop offset="0.812" stop-color="#21262a"/>
      <stop offset="0.833" stop-color="#231f20"/>
      <stop offset="1" stop-color="#231f20"/>
    </linearGradient>
    <clipPath id="clip-path-3">
      <rect id="Rectangle_1163" data-name="Rectangle 1163" width="1335.258" height="890.172" fill="none"/>
    </clipPath>
    <clipPath id="clip-path-4">
      <rect id="Rectangle_1160" data-name="Rectangle 1160" width="222.928" height="245.355" fill="none"/>
    </clipPath>
    <clipPath id="clip-path-5">
      <path id="Path_332" data-name="Path 332" d="M200.4,690.386l40.967-22.544L423.323,567.709,200.4,445.031Z" transform="translate(-200.395 -445.031)" fill="none"/>
    </clipPath>
    <linearGradient id="linear-gradient-2" x1="-0.516" y1="2.117" x2="-0.512" y2="2.117" gradientUnits="objectBoundingBox">
      <stop offset="0" stop-color="#0e1e23"/>
      <stop offset="0.373" stop-color="#0e1e23"/>
      <stop offset="0.397" stop-color="#39464a"/>
      <stop offset="0.425" stop-color="#626c6f"/>
      <stop offset="0.456" stop-color="#878f92"/>
      <stop offset="0.49" stop-color="#a8aeaf"/>
      <stop offset="0.527" stop-color="#c3c7c8"/>
      <stop offset="0.569" stop-color="#d9dcdc"/>
      <stop offset="0.618" stop-color="#eaebec"/>
      <stop offset="0.679" stop-color="#f6f6f7"/>
      <stop offset="0.764" stop-color="#fdfdfd"/>
      <stop offset="1" stop-color="#fff"/>
    </linearGradient>
    <clipPath id="clip-path-6">
      <rect id="Rectangle_1162" data-name="Rectangle 1162" width="222.952" height="245.384" fill="none"/>
    </clipPath>
    <clipPath id="clip-path-7">
      <path id="Path_333" data-name="Path 333" d="M824.085,114.224l-.02-.01L601.132,236.892v.027L824.064,359.6l.02-.012Z" transform="translate(-601.132 -114.214)" fill="none"/>
    </clipPath>
    <linearGradient id="linear-gradient-3" x1="-1.918" y1="3.341" x2="-1.914" y2="3.341" xlink:href="#linear-gradient-2"/>
    <clipPath id="clip-path-9">
      <rect id="Rectangle_1165" data-name="Rectangle 1165" width="222.955" height="245.384" fill="none"/>
    </clipPath>
    <clipPath id="clip-path-10">
      <path id="Path_338" data-name="Path 338" d="M1001.869,236.9v.02L1224.8,359.6l.018-.01V114.223l-.018-.009Z" transform="translate(-1001.869 -114.214)" fill="none"/>
    </clipPath>
    <linearGradient id="linear-gradient-4" x1="-3.203" y1="3.193" x2="-3.2" y2="3.193" gradientUnits="objectBoundingBox">
      <stop offset="0" stop-color="#fff"/>
      <stop offset="0.405" stop-color="#fff"/>
      <stop offset="0.562" stop-color="#fcfcfc"/>
      <stop offset="0.646" stop-color="#f4f4f4"/>
      <stop offset="0.714" stop-color="#e7e7e7"/>
      <stop offset="0.772" stop-color="#d3d3d3"/>
      <stop offset="0.824" stop-color="#bbbbba"/>
      <stop offset="0.872" stop-color="#9c9c9b"/>
      <stop offset="0.917" stop-color="#777"/>
      <stop offset="0.958" stop-color="#4e4e4d"/>
      <stop offset="0.997" stop-color="#1f1f1e"/>
      <stop offset="1" stop-color="#1c1c1b"/>
    </linearGradient>
    <clipPath id="clip-path-12">
      <rect id="Rectangle_1168" data-name="Rectangle 1168" width="668.864" height="736.135" fill="none"/>
    </clipPath>
    <clipPath id="clip-path-13">
      <path id="Path_345" data-name="Path 345" d="M445.911,850.364l.024-.013L668.864,727.672,445.935,604.994l-.012-.008.012.007v-.027l-.023.013h0L263.949,705.113l-40.967,22.545V482.273L445.911,359.6,222.983,236.918v-.029l-.027.014L.028,114.228V359.581L0,359.6l.028.016L222.956,482.287.036,604.96l222.92,122.674-.037.019.037.02.026.013h0l62.25,34.257Z" transform="translate(0 -114.228)" fill="none"/>
    </clipPath>
    <linearGradient id="linear-gradient-5" x1="0.157" y1="1.178" x2="0.159" y2="1.178" xlink:href="#linear-gradient-2"/>
    <clipPath id="clip-path-14">
      <path id="Path_358" data-name="Path 358" d="M1001.861,457.448v.033l222.89,122.656.036-.019.028.014V334.788l-.028-.016Z" transform="translate(-1001.861 -334.772)" fill="none"/>
    </clipPath>
    <linearGradient id="linear-gradient-6" x1="-5" y1="3.135" x2="-4.995" y2="3.135" gradientUnits="objectBoundingBox">
      <stop offset="0" stop-color="#231f20"/>
      <stop offset="0.167" stop-color="#231f20"/>
      <stop offset="0.188" stop-color="#21262a"/>
      <stop offset="0.258" stop-color="#1f3948"/>
      <stop offset="0.332" stop-color="#1c495f"/>
      <stop offset="0.411" stop-color="#1b5470"/>
      <stop offset="0.498" stop-color="#1a5a79"/>
      <stop offset="0.611" stop-color="#1a5d7d"/>
      <stop offset="1" stop-color="#1a5d7d"/>
    </linearGradient>
    <clipPath id="clip-Background_Header">
      <rect width="1920" height="807"/>
    </clipPath>
  </defs>
  <g id="Background_Header" data-name="Background Header" clip-path="url(#clip-Background_Header)">
    <rect width="1920" height="807" fill="#fff"/>
    <rect id="Rectangle_1186" data-name="Rectangle 1186" width="1920" height="807" transform="translate(0 0.318)" fill="#1c2b40"/>
    <g id="Group_679" data-name="Group 679" transform="translate(-224.966 -250.363)">
      <g id="Group_677" data-name="Group 677" clip-path="url(#clip-path)">
        <g id="Group_648" data-name="Group 648" transform="translate(234.715 914.492)">
          <g id="Group_647" data-name="Group 647" clip-path="url(#clip-path-2)">
            <rect id="Rectangle_1158" data-name="Rectangle 1158" width="175.681" height="193.355" transform="translate(0 0)" fill="url(#linear-gradient)"/>
          </g>
        </g>
        <path id="Path_331" data-name="Path 331" d="M202.614,456.059v2.747L423.073,580.125h0l.022-.013V334.754l-.023-.013Z" transform="translate(22.838 37.73)" fill="#1a5d7d"/>
        <g id="Group_660" data-name="Group 660" transform="translate(225.452 251.629)">
          <g id="Group_659" data-name="Group 659" clip-path="url(#clip-path-3)">
            <g id="Group_653" data-name="Group 653" transform="translate(-2.469 243.563)" opacity="0.5" style="mix-blend-mode: multiply;isolation: isolate">
              <g id="Group_652" data-name="Group 652">
                <g id="Group_651" data-name="Group 651" clip-path="url(#clip-path-4)">
                  <g id="Group_650" data-name="Group 650">
                    <g id="Group_649" data-name="Group 649" clip-path="url(#clip-path-5)">
                      <rect id="Rectangle_1159" data-name="Rectangle 1159" width="329.286" height="324.119" transform="matrix(0.582, -0.813, 0.813, 0.582, -116.166, 162.113)" fill="url(#linear-gradient-2)"/>
                    </g>
                  </g>
                </g>
              </g>
            </g>
            <g id="Group_658" data-name="Group 658" transform="translate(443.437 -124.542)" opacity="0.5" style="mix-blend-mode: multiply;isolation: isolate">
              <g id="Group_657" data-name="Group 657">
                <g id="Group_656" data-name="Group 656" clip-path="url(#clip-path-6)">
                  <g id="Group_655" data-name="Group 655">
                    <g id="Group_654" data-name="Group 654" clip-path="url(#clip-path-7)">
                      <rect id="Rectangle_1161" data-name="Rectangle 1161" width="322.779" height="314.064" transform="translate(-104.172 187.51) rotate(-60.945)" fill="url(#linear-gradient-3)"/>
                    </g>
                  </g>
                </g>
              </g>
            </g>
          </g>
        </g>
        <path id="Path_334" data-name="Path 334" d="M601.132,226.14V469.661L824.064,346.982,604.471,226.14Z" transform="translate(67.756 25.489)" fill="#40a1bc"/>
        <path id="Path_335" data-name="Path 335" d="M620.331,226.14,400.762,346.969V347L623.694,469.674l.022-.013V226.14Z" transform="translate(45.172 25.489)" fill="#649a98"/>
        <path id="Path_336" data-name="Path 336" d="M1018.5,226.14,801.613,346.168v.029l222.921,123.366.022-.012V226.14Z" transform="translate(90.238 26.605)" fill="#649a98"/>
        <path id="Path_337" data-name="Path 337" d="M1001.869,226.14V469.662L1224.8,346.982,1005.212,226.14Z" transform="translate(112.925 25.489)" fill="#9fc6c5"/>
        <g id="Group_667" data-name="Group 667" transform="translate(225.452 251.629)">
          <g id="Group_666" data-name="Group 666" clip-path="url(#clip-path-3)">
            <g id="Group_665" data-name="Group 665" transform="translate(889.344 -124.542)" opacity="0.3" style="mix-blend-mode: multiply;isolation: isolate">
              <g id="Group_664" data-name="Group 664">
                <g id="Group_663" data-name="Group 663" clip-path="url(#clip-path-9)">
                  <g id="Group_662" data-name="Group 662" transform="translate(-0.001)">
                    <g id="Group_661" data-name="Group 661" clip-path="url(#clip-path-10)">
                      <rect id="Rectangle_1164" data-name="Rectangle 1164" width="331.164" height="331.164" transform="translate(-122.692 122.692) rotate(-45)" fill="url(#linear-gradient-4)"/>
                    </g>
                  </g>
                </g>
              </g>
            </g>
          </g>
        </g>
        <path id="Path_339" data-name="Path 339" d="M1202.238,226.14V346.972L1421.812,226.14Z" transform="translate(135.51 25.489)" fill="#2a3538"/>
        <path id="Path_340" data-name="Path 340" d="M203.393,226.14,422.985,346.982l.024-.013V226.14Z" transform="translate(22.925 25.489)" fill="#649a98"/>
        <path id="Path_341" data-name="Path 341" d="M400.763,226.14V346.969L620.331,226.14Z" transform="translate(45.172 25.489)" fill="#9fc6c5"/>
        <path id="Path_342" data-name="Path 342" d="M801.5,226.14V346.97l219.57-120.83Z" transform="translate(90.341 25.489)" fill="#2a3538"/>
        <path id="Path_343" data-name="Path 343" d="M1001.869,457.421v.022L1224.8,580.125l.018-.01V334.75l-.018-.009Z" transform="translate(112.925 37.73)" fill="#1a5d7d"/>
        <path id="Path_344" data-name="Path 344" d="M202.614,909.4,423.073,788.085,262.395,699.664l-59.781-32.9Z" transform="translate(22.838 75.154)" fill="#1a5d7d"/>
        <g id="Group_674" data-name="Group 674" transform="translate(225.452 251.629)">
          <g id="Group_673" data-name="Group 673" clip-path="url(#clip-path-3)">
            <g id="Group_672" data-name="Group 672" transform="translate(-225.452 -124.526)" opacity="0.5" style="mix-blend-mode: multiply;isolation: isolate">
              <g id="Group_671" data-name="Group 671">
                <g id="Group_670" data-name="Group 670" clip-path="url(#clip-path-12)">
                  <g id="Group_669" data-name="Group 669">
                    <g id="Group_668" data-name="Group 668" clip-path="url(#clip-path-13)">
                      <rect id="Rectangle_1167" data-name="Rectangle 1167" width="976.309" height="953.692" transform="translate(-326.462 538.058) rotate(-58.753)" fill="url(#linear-gradient-5)"/>
                    </g>
                  </g>
                </g>
              </g>
            </g>
          </g>
        </g>
        <path id="Path_346" data-name="Path 346" d="M400.763,567.683v.028l222.93,122.678.023-.013V445.018l-.023-.013Z" transform="translate(45.172 50.159)" fill="#fff"/>
        <path id="Path_347" data-name="Path 347" d="M400.741,334.743l.024.013v-.028Z" transform="translate(45.169 37.729)" fill="#0e1e23"/>
        <path id="Path_348" data-name="Path 348" d="M813.454,685.688v0l77.463-42.628-77.463-42.627Z" transform="translate(91.688 67.678)" fill="#2a3538"/>
        <path id="Path_349" data-name="Path 349" d="M385.765,907.111v0l77.463-42.628-77.463-42.627Z" transform="translate(43.481 92.636)" fill="#649a98"/>
        <path id="Path_350" data-name="Path 350" d="M1224.944,571.224v0l121.646-66.941-121.646-66.942Z" transform="translate(138.069 49.295)" fill="#40a1bc"/>
        <path id="Path_351" data-name="Path 351" d="M1202.222,555.269l.018.01v-.02Z" transform="translate(135.508 62.586)" fill="#0e1e23"/>
        <path id="Path_352" data-name="Path 352" d="M400.741,775.8l.024.013v-.029Z" transform="translate(45.169 87.442)" fill="#0e1e23"/>
        <path id="Path_353" data-name="Path 353" d="M1202.222,334.742l.018.009v-.019Z" transform="translate(135.508 37.729)" fill="#0e1e23"/>
        <path id="Path_354" data-name="Path 354" d="M601.112,665.533l.022.012v-.026Z" transform="translate(67.754 75.014)" fill="#0e1e23"/>
        <path id="Path_355" data-name="Path 355" d="M824.087,580.114V334.73l-.02.012L601.135,457.421l-.024.013.024.013L824.066,580.125l.021.012Z" transform="translate(67.754 37.729)" fill="#1a5d7d"/>
        <path id="Path_356" data-name="Path 356" d="M1001.854,445h0l.02.01v-.022Z" transform="translate(112.923 50.157)" fill="#0e1e23"/>
        <path id="Path_357" data-name="Path 357" d="M1024.442,457.382,801.532,334.715l-.022-.012V580.061Z" transform="translate(90.342 37.726)" fill="#fff"/>
        <g id="Group_676" data-name="Group 676" transform="translate(1114.786 372.506)">
          <g id="Group_675" data-name="Group 675" clip-path="url(#clip-path-14)">
            <rect id="Rectangle_1170" data-name="Rectangle 1170" width="222.954" height="245.365" transform="translate(0)" fill="url(#linear-gradient-6)"/>
          </g>
        </g>
        <path id="Path_359" data-name="Path 359" d="M400.774,800.6l40.967-22.544L623.7,677.925,400.774,555.248Z" transform="translate(45.173 62.585)" fill="#40a1bc"/>
        <path id="Path_360" data-name="Path 360" d="M401.1,578.658l40.967-22.544L624.023,455.98,401.1,333.3Z" transform="translate(45.209 37.568)" fill="#2a3538"/>
        <path id="Path_361" data-name="Path 361" d="M202.614,689.477l40.966-22.545L425.542,566.8,202.614,444.121Z" transform="translate(22.838 50.059)" fill="#649a98"/>
        <path id="Path_362" data-name="Path 362" d="M817.094,596.661l-133.82-73.641-.013-.007V670.309Z" transform="translate(77.014 58.951)" fill="#649a98"/>
      </g>
    </g>
    <rect id="Rectangle_1185" data-name="Rectangle 1185" width="1920" height="807" transform="translate(0 0.318)" fill="#1c2b40" opacity="0.93"/>
  </g>
</svg>
